{
    "KDE-KIO-Protocols": {
        "ar": {
            "protocol": "ar",
            "archiveMimetype": ["application/x-archive"],
            "source": true,
            "exec": "kf5/kio/archive",
            "Icon": "package-x-generic",
            "Class":"local",
            "listing": [
                "Name",
                "Type",
                "Size",
                "Date",
                "Access",
                "Owner",
                "Group",
                "Link"
            ],
            "copyFromFile": false,
            "copyToFile": true,
            "deleting": false,
            "linking": false,
            "makedir": false,
            "moving": false,
            "reading": true,
            "writing": false
        },
        "tar": {
            "protocol": "tar",
            "archiveMimetype": [
                "application/x-tar",
                "application/x-compressed-tar",
                "application/x-bzip-compressed-tar",
                "application/x-webarchive",
                "application/x-lzma-compressed-tar",
                "application/x-xz-compressed-tar"
                ],
            "X-DocPath": "kioslave5/tar/index.html",
            "source": true,
            "exec": "kf5/kio/archive",
            "Icon": "package-x-generic",
            "Class":"local",
            "listing": [
                "Name",
                "Type",
                "Size",
                "Date",
                "Access",
                "Owner",
                "Group",
                "Link"
            ],
            "copyFromFile": false,
            "copyToFile": true,
            "deleting": false,
            "linking": false,
            "makedir": false,
            "moving": false,
            "reading": true,
            "writing": false
        },
        "sevenz": {
            "protocol": "sevenz",
            "archiveMimetype": ["application/x-7z-compressed"],
            "source": true,
            "exec": "kf5/kio/archive",
            "Icon": "package-x-generic",
            "Class":"local",
            "listing": [
                "Name",
                "Type",
                "Size",
                "Date",
                "Access",
                "Owner",
                "Group",
                "Link"
            ],
            "copyFromFile": false,
            "copyToFile": true,
            "deleting": false,
            "linking": false,
            "makedir": false,
            "moving": false,
            "reading": true,
            "writing": false
        },
        "zip": {
            "protocol": "zip",
            "archiveMimetype": ["application/zip"],
            "source": true,
            "exec": "kf5/kio/archive",
            "Icon": "package-x-generic",
            "Class":"local",
            "listing": [
                "Name",
                "Type",
                "Size",
                "Date",
                "Access",
                "Owner",
                "Group",
                "Link"
            ],
            "copyFromFile": false,
            "copyToFile": true,
            "deleting": false,
            "linking": false,
            "makedir": false,
            "moving": false,
            "reading": true,
            "writing": false
        }
    }
}
